<svg width="45" height="48" viewBox="0 0 45 48" fill="none" xmlns="http://www.w3.org/2000/svg">
<path fill-rule="evenodd" clip-rule="evenodd" d="M0 10C0 4.47715 4.47715 0 10 0H35C40.5228 0 45 4.47715 45 10V38C45 43.5229 40.5228 48 35 48H10C4.47715 48 0 43.5228 0 38V10ZM18 12.5C18 14.9853 15.9853 17 13.5 17C11.0147 17 9 14.9853 9 12.5C9 10.0147 11.0147 8 13.5 8C15.9853 8 18 10.0147 18 12.5ZM11.5 23C10.1193 23 9 24.1193 9 25.5C9 26.8807 10.1193 28 11.5 28H35.5C36.8807 28 38 26.8807 38 25.5C38 24.1193 36.8807 23 35.5 23H11.5ZM9 36.5C9 35.1193 10.1193 34 11.5 34H30.5C31.8807 34 33 35.1193 33 36.5C33 37.8807 31.8807 39 30.5 39H11.5C10.1193 39 9 37.8807 9 36.5ZM24 10C22.3431 10 21 11.3431 21 13C21 14.6569 22.3431 16 24 16H35C36.6569 16 38 14.6569 38 13C38 11.3431 36.6569 10 35 10H24Z" fill="#D9D9D9"/>
</svg>
